{
    "airports" : [

        {
            "name": "Dinard", "code": "LFRD", "elevation": "219 ft",
            "coordinates" : { "lat": { "degrees" : "48 35 16 N", "decimal": "48.587778" }, "long": { "degrees" : "002 04 48 W", "decimal": "-2.08" } },
            "frequencies": [
                { "code": "TWR", "frequency": "120.15" },
                { "code": "ATIS", "frequency": "124.575" },
                { "code": "VOR", "frequency": "114.3" }
            ],
            "circuit_altitude": "1200", "integration_altitude": "1700",
            "runway_layout": "two_intersecting",
            "preferred": "35",
            "runways": [
                    { 
                        "name": "17-35", "intersection": "middle", 
                        "surface": "paved",
                        "orientations": [
                            { "name": "17", "qfu": 172, "length": 2200, "width": 45, "circuit": "right"  },
                            { "name": "35", "qfu": 352, "length": 2200, "width": 45, "circuit": "left"  }
                        ]

                    },
                    {
                        "name": "12-30", "intersection": "middle", 
                        "surface": "paved",
                        "orientations": [
                            { "name": "12", "qfu": 117, "length": 1445, "width": 45, "circuit": "left"  },
                            { "name": "30", "qfu": 297, "length": 1445, "width": 45, "circuit": "right"  }
                        ]
                    }
                ]
        },
        {
            "name": "Dinan", "code": "LFEB", "elevation": "393 ft",
            "coordinates" : { "lat": { "degrees" : "48 26 36 N", "decimal": "48.443333" }, "long": { "degrees" : "002 06 12 W", "decimal": "-2.103333" } },
            "frequencies": [
                { "code": "TWR", "frequency": "120.15" },
                { "code": "APP", "frequency": "126.95" },
                { "code": "A/A", "frequency": "123.5" }
            ],
            "circuit_altitude": "1400", "integration_altitude": "1900",
            "runway_layout": "single",
            "preferred": "",
            "runways": [
                    { 
                        "name": "07-25", 
                        "surface": "paved",
                        "orientations": [
                            { "name": "07", "qfu": 73, "length": 830, "width": 30, "circuit": "left"  },
                            { "name": "25", "qfu": 253, "length": 830, "width": 30, "circuit": "left"  }
                        ]

                    }
                ]
        }    
    ]

}